{
    "bugzilla.mozilla.org": "Mozilla Foundation",
    "bugs.freedesktop.org": "FreeDesktop.org",
    "bugs.eclipse.org": "Eclipse Project",
    "bugzilla.gnome.org": "GNOME Desktop",
    "bugzilla.redhat.com": "Red Hat" 
}
